Label,# Samples,Average,Min,Max,Std. Dev.,Error %,Throughput,Received KB/sec,Sent KB/sec,Avg. Bytes
Log Level Error:Set Log Level,1,982,982,982,0.00,0.000%,1.01833,0.45,1.30,456.0
Get currencies By Id:Get currencies By Id,100,754,726,823,16.40,0.000%,1.32414,1.10,1.79,851.4
Get addresstypes:Get addresstypes,100,755,723,847,18.49,0.000%,2.60559,6.47,3.44,2544.0
Get porttypes:Get porttypes,1,835,835,835,0.00,0.000%,1.19760,1.35,1.58,1158.0
Get states By Id:Get states By Id,100,757,728,955,26.34,0.000%,2.60322,2.31,3.51,909.8
Get visatypes By Id:Get visatypes By Id,100,760,723,1048,35.20,0.000%,2.58980,2.23,3.50,880.2
Get hotels:Get hotels,200,761,724,1054,27.36,0.000%,2.60396,16.22,3.42,6380.0
Get documenttypes:Get documenttypes,100,762,732,855,21.63,0.000%,1.31160,8.71,1.73,6799.0
Get brands:Get brands,100,760,727,864,18.87,0.000%,1.31527,1.64,1.73,1277.0
Get genders By Id:Get genders By Id,100,759,725,960,31.54,0.000%,1.31683,1.06,1.78,821.0
Get airlines By Id:Get airlines By Id,200,761,723,1051,34.60,0.000%,2.60352,2.16,3.51,848.2
Get visatypes:Get visatypes,100,763,726,963,32.32,0.000%,2.59666,3.08,3.43,1215.0
Update countries:Update  countries,100,785,750,973,32.99,0.000%,2.50576,3.29,4.35,1345.9
Get states:Get states,100,790,732,979,38.05,0.000%,2.48973,24.19,3.27,9950.9
Get genders:Get genders,100,761,727,986,34.14,0.000%,1.31299,1.94,1.72,1512.0
Get phonetypes:Get phonetypes,1,952,952,952,0.00,0.000%,1.05042,2.22,1.38,2167.0
Get brands By Id:Get brands By Id,100,758,723,948,27.60,0.000%,1.31721,1.19,1.78,928.0
Get departments By Id:Get departments By Id,200,760,722,1018,36.03,0.000%,2.60559,2.20,3.52,864.5
Update brands:Update brands,100,784,739,2007,126.23,0.000%,1.27453,1.57,2.09,1262.8
Update states:Update states,100,774,738,979,34.20,0.000%,2.54001,3.12,4.12,1257.9
Get loyaltyleveltypes By Id:Get loyaltyleveltypes By Id,100,762,727,960,32.60,0.000%,2.60505,2.53,3.54,995.7
Get suffixes By Id:Get suffixes By Id,100,760,720,961,27.68,0.000%,2.60437,2.03,3.51,800.1
Get beaconcompanies:Get beaconcompanies,100,762,725,958,25.01,0.000%,1.31130,1.01,1.73,790.0
Get maritalstatuses By Id:Get maritalstatuses By Id,1,966,966,966,0.00,0.000%,1.03520,0.84,1.40,830.0
Get countries By Id:Get  locationtypes By Id,100,755,722,970,29.43,0.000%,2.61172,2.55,3.53,999.1
Get companies:Get companies,200,761,722,1109,35.42,0.000%,2.60790,3.07,3.43,1205.0
Update ports:Update  ports,100,775,737,971,34.46,0.000%,2.54654,3.81,4.62,1530.8
Get documenttypes By Id:Get documenttypes By Id,100,758,724,959,28.61,0.000%,1.31785,1.09,1.79,848.0
Get ports By Id:Get  ports By Id,100,755,723,970,29.52,0.000%,2.61363,2.79,3.52,1093.4
Get persontypes By Id:Get  persontypes By Id,100,760,725,969,27.01,0.000%,2.59869,2.11,3.51,829.8
Get companies By Id:Get companies By Id,100,758,722,1013,37.72,0.000%,1.31719,1.10,1.78,854.0
Get paymentmodes By Id:Get paymentmodes By Id,100,761,722,968,32.60,0.000%,2.60919,2.12,3.53,834.0
Get airports By Id:Get airports By Id,100,755,722,971,28.59,0.000%,2.61219,2.63,3.53,1031.7
Get persontypes:Get persontypes,100,761,726,972,27.94,0.000%,2.59977,7.53,3.42,2967.0
Get maritalstatuses:Get maritalstatuses,100,757,721,972,29.18,0.000%,2.60430,4.84,3.44,1904.0
Update genders:Update genders,100,777,736,1708,98.33,0.000%,1.28568,1.62,1.98,1287.0
Get socialmediatypes By Id:Get socialmediatypes By Id,1,975,975,975,0.00,0.000%,1.02564,0.85,1.39,850.0
Get suffixes:Get suffixes,100,759,727,973,32.30,0.000%,2.61110,6.18,3.43,2423.0
Get paymentmodes:Get paymentmodes,100,761,729,1004,36.55,0.000%,1.31289,2.90,1.73,2260.0
Get currencies:Get currencies,100,779,742,1033,34.41,0.000%,1.28291,11.26,1.69,8989.0
Get socialmediatypes:Get socialmediatypes,100,763,728,1042,33.05,0.000%,1.30981,1.55,1.73,1215.0
Get loyaltyleveltypes:Get loyaltyleveltypes,100,763,731,1043,38.17,0.000%,2.58920,7.63,3.43,3018.0
Get departments:Get departments,200,769,733,1040,29.10,0.000%,2.58746,23.19,3.41,9176.9
Get airlines:Get airlines,100,789,751,1047,38.13,0.000%,2.49078,21.05,3.27,8653.0
Update documenttypes:Update documenttypes,100,771,733,1046,32.15,0.000%,1.29577,1.52,2.04,1199.9
Get countries:Get countries,100,1016,969,1213,33.73,0.000%,1.93663,22.67,2.55,11986.0
Get airports:Get airports,100,1005,961,1223,31.31,0.000%,1.96854,25.37,2.59,13197.9
Get ports:Get ports,200,1005,958,1308,31.89,0.000%,1.98198,27.61,2.60,14265.9
Log Level Info:Set Log Level,1,843,843,843,0.00,0.000%,1.18624,0.53,1.51,456.0
TOTAL,4906,784,720,2007,77.60,0.000%,47.71352,158.42,65.39,3400.0
