{
  "boarding-service": "dxpcore",
  "configuration-service": "dxpcore",
  "guest-service": "dxpcore",
  "idcrossreference-service": "dxpcore",
  "multimediastorage-service": "dxpcore",
  "payment-service": "dxpcore",
  "referencedata-service": "dxpcore",
  "ship-service": "dxpcore",
  "teammember-service": "dxpcore",
  "visitor-service": "dxpcore",
  "embarkation-admin-bff": "crew-bff/crew-embarkation-admin",
  "embarkation-bff": "crew-bff/crew-embarkation",
  "crew-folio-bff": "crew-bff/crew-folio",
  "crew-dashboard-bff": "crew-bff/crew-dashboard",
  "crew-profile-bff": "crew-bff/crew-profile",
  "housekeeping-bff": "cabin-bff/housekeeping",
  "stateroom-control-bff": "cabin-bff/stateroom",
  "entertainment-bff": "cabin-bff/entertainment"
}